{
    "score_type": "ScoreType.conceptnet",
    "score_method": "ScoreMethod.total_probability",
    "f_aggregation": "Aggregation.max",
    "use_stemming": "True",
    "detector_filter": ["NN","VB","JJ"],
    "new_word_filter": ["NN","VB","JJ"]
}